Lab 10 – Lab 10: Distances and Projections
…
1.4 Get city locations from the CSV file

readr::read_csv("data/uscities.csv")

Rows: 31254 Columns: 17
── Column specification ────────────────────────────────────────────────────────
Delimiter: ","
chr (9): city, city_ascii, state_id, state_name, county_fips, county_name, s...
dbl (6): lat, lng, population, density, ranking, id
lgl (2): military, incorporated

ℹ Use `spec()` to retrieve the full column specification for this data.
ℹ Specify the column types or set `show_col_types = FALSE` to quiet this message.

# A tibble: 31,254 × 17
   city      city_ascii state_id state_name county_fips county_name   lat    lng
   <chr>     <chr>      <chr>    <chr>      <chr>       <chr>       <dbl>  <dbl>
 1 New York  New York   NY       New York   36081       Queens       40.7  -73.9
 2 Los Ange… Los Angel… CA       California 06037       Los Angeles  34.1 -118. 
 3 Chicago   Chicago    IL       Illinois   17031       Cook         41.8  -87.7
 4 Miami     Miami      FL       Florida    12086       Miami-Dade   25.8  -80.2
 5 Houston   Houston    TX       Texas      48201       Harris       29.8  -95.4
 6 Dallas    Dallas     TX       Texas      48113       Dallas       32.8  -96.8
 7 Philadel… Philadelp… PA       Pennsylva… 42101       Philadelph…  40.0  -75.1
 8 Atlanta   Atlanta    GA       Georgia    13121       Fulton       33.8  -84.4
 9 Washingt… Washington DC       District … 11001       District o…  38.9  -77.0
10 Boston    Boston     MA       Massachus… 25025       Suffolk      42.3  -71.1
# ℹ 31,244 more rows
# ℹ 9 more variables: population <dbl>, density <dbl>, source <chr>,
#   military <lgl>, incorporated <lgl>, timezone <chr>, ranking <dbl>,
#   zips <chr>, id <dbl>
…
